{
  "files": {
    "main.css": "/static/css/main.65d71b4e.css",
    "main.js": "/static/js/main.77f28d7e.js",
    "static/js/453.e175767b.chunk.js": "/static/js/453.e175767b.chunk.js",
    "static/media/fond.png": "/static/media/fond.cd281d08e72acf01d06a.png",
    "static/media/station.png": "/static/media/station.89effd1b2a41854a1c6c.png",
    "static/media/voiture.png": "/static/media/voiture.62dbb491131ca60c9ef5.png",
    "static/media/obstacles.png": "/static/media/obstacles.0eec04a7ff423dca0897.png",
    "static/media/boules.png": "/static/media/boules.77ef5dc3619c629b98c9.png",
    "index.html": "/index.html",
    "main.65d71b4e.css.map": "/static/css/main.65d71b4e.css.map",
    "main.77f28d7e.js.map": "/static/js/main.77f28d7e.js.map",
    "453.e175767b.chunk.js.map": "/static/js/453.e175767b.chunk.js.map"
  },
  "entrypoints": [
    "static/css/main.65d71b4e.css",
    "static/js/main.77f28d7e.js"
  ]
}